Proyecto 1 Mineria de Datos
…
bydept$'database$DEPOCU'[bydept$'database$DEPOCU' == 12] <- 'San Marcos'
bydept$'database$DEPOCU'[bydept$'database$DEPOCU' == 13] <- 'Huehuetenango'
bydept$'database$DEPOCU'[bydept$'database$DEPOCU' == 14] <- 'Quich'
bydept$'database$DEPOCU'[bydept$'database$DEPOCU' == 15] <- 'Baja Verapaz'
bydept$'database$DEPOCU'[bydept$'database$DEPOCU' == 16] <- 'Alta Verapaz'
bydept$'database$DEPOCU'[bydept$'database$DEPOCU' == 17] <- 'Petn'
bydept$'database$DEPOCU'[bydept$'database$DEPOCU' == 18] <- 'Izabal'
bydept$'database$DEPOCU'[bydept$'database$DEPOCU' == 19] <-  'Zacapa'
bydept$'database$DEPOCU'[bydept$'database$DEPOCU' == 20] <- 'Chiquimula'
bydept$'database$DEPOCU'[bydept$'database$DEPOCU' == 21] <- 'Jalapa'
bydept$'database$DEPOCU'[bydept$'database$DEPOCU' == 22] <- 'Jutiapa'
bydept <- arrange(bydept, desc(bydept$freq)) 
bydept

## # A tibble: 22 x 2
##    `database$DEPOCU`  freq
##    <chr>             <int>
##  1 Guatemala          9028
##  2 Alta Verapaz       5085
##  3 Quich             2740
##  4 Quetzaltenango     2708
##  5 Chimaltenango      2055
##  6 Solol             2038
##  7 Totonicapn        1852
##  8 Huehuetenango      1625
##  9 Escuintla          1574
## 10 San Marcos         1376
## # ... with 12 more rows
…
bydept2$'database$DEPREM'[bydept2$'database$DEPREM' == 14] <- 'Quich'
bydept2$'database$DEPREM'[bydept2$'database$DEPREM' == 15] <- 'Baja Verapaz'
bydept2$'database$DEPREM'[bydept2$'database$DEPREM' == 16] <- 'Alta Verapaz'
bydept2$'database$DEPREM'[bydept2$'database$DEPREM' == 17] <- 'Petn'
bydept2$'database$DEPREM'[bydept2$'database$DEPREM' == 18] <- 'Izabal'
bydept2$'database$DEPREM'[bydept2$'database$DEPREM' == 19] <-  'Zacapa'
bydept2$'database$DEPREM'[bydept2$'database$DEPREM' == 20] <- 'Chiquimula'
bydept2$'database$DEPREM'[bydept2$'database$DEPREM' == 21] <- 'Jalapa'
bydept2$'database$DEPREM'[bydept2$'database$DEPREM' == 22] <- 'Jutiapa'
bydept2$'database$DEPREM'[bydept2$'database$DEPREM' == 23] <- 'Extranjero'
bydept2$'database$DEPREM'[bydept2$'database$DEPREM' == 99] <- 'Ignorado'
bydept2 <- arrange(bydept2, desc(bydept2$freq)) 
head(bydept2,24)

## # A tibble: 24 x 2
##    `database$DEPREM`  freq
##    <chr>             <int>
##  1 Guatemala          6345
##  2 Alta Verapaz       4707
##  3 Ignorado           3586
##  4 Quich             2817
##  5 Quetzaltenango     2186
##  6 Chimaltenango      2108
##  7 Totonicapn        1977
##  8 Solol             1705
##  9 Huehuetenango      1485
## 10 San Marcos         1439
## # ... with 14 more rows
…
